<?xml version="1.0" encoding="utf-8"?>
<!-- Generator: Adobe Illustrator 23.1.1, SVG Export Plug-In . SVG Version: 6.00 Build 0)  -->
<svg version="1.1" id="Laag_1" xmlns="http://www.w3.org/2000/svg" xmlns:xlink="http://www.w3.org/1999/xlink" x="0px" y="0px"
	 viewBox="0 0 150 150" style="enable-background:new 0 0 150 150;" xml:space="preserve">
<style type="text/css">
	.st0{fill:#595656;}
</style>
<g>
	<path class="st0" d="M76.9,26.2c-31.6,0-57.1,18.2-57.1,40.8c0,12.9,8.4,24.5,21.5,31.9c-3,10.6-7.6,14.5-11.6,19
		c-1,1.1-2,2.1-1.7,3.7v0.1c0.3,1.4,1.5,2.4,2.7,2.4H31c2.5-0.3,5-0.8,7.3-1.4c11-2.8,21-8,29.3-15.4c3,0.3,6.1,0.5,9.2,0.5
		c31.6,0,57.1-18.2,57.1-40.8C134,44.5,108.4,26.2,76.9,26.2z M76.9,99.7c-2.7,0-5.5-0.2-8.3-0.5L65,98.8l-2.7,2.4
		c-5.2,4.6-11.1,8.2-17.5,10.9c1.7-2.9,3.3-6.4,4.5-11L51,95l-5.5-3.2c-11-6.2-17.4-15.3-17.4-24.8c0-17.7,22.4-32.6,49-32.6
		s49,14.9,49,32.6C125.8,84.8,103.4,99.7,76.9,99.7z"/>
	<path class="st0" d="M103,57.2H52.9c-1.2,0-2.2,0.7-2.2,1.6v3.3c0,0.9,0.9,1.6,2.2,1.6H103c1.2,0,2.2-0.7,2.2-1.6v-3.3
		C105.1,57.9,104.2,57.2,103,57.2z"/>
	<path class="st0" d="M94.1,71.2H52.9c-1.2,0-2.2,0.7-2.2,1.6v3.3c0,0.9,0.9,1.6,2.2,1.6h41.2c1.2,0,2.2-0.7,2.2-1.6v-3.3
		C96.3,71.9,95.3,71.2,94.1,71.2z"/>
</g>
</svg>
