<?xml version="1.0" encoding="utf-8"?>
<!-- Generator: Adobe Illustrator 23.1.1, SVG Export Plug-In . SVG Version: 6.00 Build 0)  -->
<svg version="1.1" id="Laag_1" xmlns="http://www.w3.org/2000/svg" xmlns:xlink="http://www.w3.org/1999/xlink" x="0px" y="0px"
	 viewBox="0 0 150 150" style="enable-background:new 0 0 150 150;" xml:space="preserve">
<style type="text/css">
	.st0{fill:#565555;}
</style>
<g>
	<g>
		<g>
			<path class="st0" d="M74.8,70.5c0-6.3-3.9-10.1-10.3-10.1c-3.8,0-7.3,3-9,4.7c-1.7-1.7-5.3-4.7-9-4.7c-6.5,0-10.3,3.8-10.3,10.1
				c0,5.2,4.8,9.5,4.9,9.7l13.5,13c0.3,0.3,0.6,0.4,1,0.4s0.7-0.1,1-0.4l13.5-13C70.1,80,74.8,75.7,74.8,70.5"/>
		</g>
		<path class="st0" d="M125.3,112.1c-0.8-0.4-6.6-1.6-6.6-1.6c-2.3-0.5-4.6,1-5.1,3.3l-4.4,21.1c-0.5,2.3,1,4.6,3.3,5.1l5.4,1.2
			c2.3,0.5,4.6-1,5.1-3.3l4.5-21C128,114.9,127,113,125.3,112.1z M118.5,136.6c-0.8,1.2-2.4,1.5-3.6,0.8s-1.5-2.4-0.8-3.6
			s2.4-1.5,3.6-0.8C119,133.8,119.3,135.4,118.5,136.6z"/>
		<g>
			<path class="st0" d="M91,103.9c-2.7-4-8.1-4.6-8.1-4.6c-5.1-0.3-8.1,0.2-10.3,1.1v0l-0.5,0.3c-2.5,1.6-6.8,4.3-13.2,5
				c-6.7,0.7-12.6,3.2-12.6,3.2c-2.6,1.5-2.7,4.4-2.5,4.9c0.1,0.2,0.3,0.6,1.3,0.6c0.3,0,1.1-0.1,2.3-0.1l0.4,0
				c18.6-1.4,26.3-0.9,28.3,1.8l-2.5,1.8c-0.8-1.1-5.9-2-25.6-0.6l-0.4,0c-1.4,0.1-2.3,0.2-2.6,0.2c-2.5-0.1-3.5-1.5-4-2.3
				c-0.3-0.6-0.4-1.6-0.3-2.6c-3.8-1.8-11.9-5.4-17.7-8.3c-7.3-3.6-8,4.1-8,4.1l2.5,1.1c-1.2,2.6,0.3,4.2,0.3,4.2
				c9.4,1.9,35,21.7,37.4,22.2c2.4,0.6,10.8-1.9,23-4.7s21.4,1.6,26.1,5.1l5-24.3C97,108.9,91,103.9,91,103.9z"/>
			<path class="st0" d="M72.3,98.8L72.3,98.8L72.3,98.8z"/>
		</g>
	</g>
	<g>
		<path class="st0" d="M131.7,21.1c-0.2-2.4-2.2-4.1-4.6-4l-5.5,0.4c-2.4,0.2-4.2,2.2-4,4.6l1.6,21.5c0.2,2.4,2.2,4.2,4.6,4
			c0,0,5.4-0.3,6.7-0.8c1.8-0.6,3.1-2.3,2.9-4.3L131.7,21.1z M125.8,25.2c-1.3,0.6-2.8,0-3.4-1.2c-0.6-1.3-0.1-2.8,1.2-3.4
			c1.3-0.6,2.8,0,3.4,1.2C127.6,23,127.1,24.6,125.8,25.2z"/>
		<path class="st0" d="M112.9,20.2c-5.1,2.9-14.7,5.9-26.5,1.6s-19.8-7.9-22.2-7.7c-2.4,0.2-30.4,16.5-40,17.1c0,0-1.7,1.4-0.9,4.1
			l-2.6,0.8c0,0-0.3,7.8,7.4,5.2c6.2-2.1,14.7-4.7,18.7-5.9c0-1.1,0.2-2,0.6-2.6c0.5-0.8,1.7-2,4.3-1.8c0.2,0,1,0.2,2.2,0.4l0.7,0.1
			c19.4,4,24.5,3.8,25.5,2.8l2.2,2.1c-2.3,2.4-9.8,1.9-28.3-1.9l-0.7-0.2c-1-0.2-1.6-0.3-1.9-0.4c-1.1-0.1-1.3,0.3-1.4,0.4
			c-0.2,0.4-0.5,3.3,2,5.2c0,0,5.5,3.2,12,4.8c6.3,1.5,10.1,4.8,12.4,6.7l0.4,0.4l0,0c2.1,1.2,4.9,2.1,10.1,2.5c0,0,5.5,0.1,8.7-3.5
			c0,0,6.6-4.2,19.2-5.6L112.9,20.2z"/>
	</g>
</g>
</svg>
