<?xml version="1.0" encoding="utf-8"?>
<!-- Generator: Adobe Illustrator 23.1.1, SVG Export Plug-In . SVG Version: 6.00 Build 0)  -->
<svg version="1.1" id="Laag_1" xmlns="http://www.w3.org/2000/svg" xmlns:xlink="http://www.w3.org/1999/xlink" x="0px" y="0px"
	 viewBox="0 0 150 150" style="enable-background:new 0 0 150 150;" xml:space="preserve">
<style type="text/css">
	.st0{fill:#595656;}
</style>
<g>
	<path class="st0" d="M133,105.7c0-0.5,0-1.1-0.2-1.6c-0.5-1.6-4.3-3.3-5.9-4.1c-4.4-2.5-8.9-4.9-13.2-7.4c-2-1.2-4.5-3.5-6.9-3.5
		c-4.7,0-11.6,13.9-15.7,13.9c-2.1,0-4.8-1.9-6.6-3c-14-7.8-23.8-17.5-31.5-31.5c-1.1-1.9-3-4.6-3-6.6c0-4.2,14-11,14-15.7
		c0-2.4-2.3-4.9-3.5-6.9c-2.5-4.3-4.9-8.8-7.4-13.2c-0.8-1.5-2.5-5.3-4.1-5.9C48.4,20,47.8,20,47.3,20c-2.8,0-8.2,1.2-10.7,2.4
		c-3.8,1.6-6.2,5.9-8.2,9.4c-2.5,4.6-3.9,9.2-3.9,14.3c0,7.2,2.9,13.6,5.3,20.2c1.7,4.7,3.8,9.2,6.4,13.5c8.1,13.1,23.9,28.9,37,37
		c4.2,2.6,8.8,4.7,13.5,6.4c6.6,2.4,13,5.3,20.2,5.3c5.2,0,9.8-1.5,14.3-3.9c3.5-1.9,7.8-4.4,9.4-8.2
		C131.8,113.9,133,108.5,133,105.7"/>
</g>
</svg>
