<?xml version="1.0" encoding="utf-8"?>
<!-- Generator: Adobe Illustrator 23.1.1, SVG Export Plug-In . SVG Version: 6.00 Build 0)  -->
<svg version="1.1" id="Laag_1" xmlns="http://www.w3.org/2000/svg" xmlns:xlink="http://www.w3.org/1999/xlink" x="0px" y="0px"
	 viewBox="0 0 150 150" style="enable-background:new 0 0 150 150;" xml:space="preserve">
<style type="text/css">
	.st0{fill:#595656;}
</style>
<g>
	<path class="st0" d="M108.7,17.1c-0.6-0.4-1.3-0.8-2-1.1c-1.4-0.6-3-0.9-4.6-0.9h-4.3H54.1c-6.5,0-12,5.4-12,12v95.8
		c0,6.6,5.4,12,12,12l47.9-0.1v0.1c6.6,0,12-5.4,12-12V27C114,22.9,111.9,19.3,108.7,17.1z M70.6,24.5h15c0.8,0,1.5,0.7,1.5,1.5
		s-0.7,1.5-1.5,1.5h-15c-0.8,0-1.5-0.7-1.5-1.5S69.7,24.5,70.6,24.5z M78.1,127.3c-2.5,0-4.5-2-4.5-4.5s2-4.5,4.5-4.5s4.5,2,4.5,4.5
		C82.6,125.3,80.5,127.3,78.1,127.3z M52.9,112.7c-1.7,0-3.1-1.5-3.1-3.1V37.4c0-1.7,1.5-3.1,3.1-3.1h43.6h6.7
		c0.4,0,0.8,0.1,1.2,0.3c0.8,0.3,1.4,1,1.7,1.7c0.2,0.4,0.3,0.8,0.3,1.2v46.3v25.8c0,1.7-1.5,3.1-3.1,3.1H52.9z"/>
	<path class="st0" d="M92.5,59.8c5.1,0,9.2-4.1,9.2-9.2s-4.1-9.2-9.2-9.2H63.1c-5.1,0-9.2,4.1-9.2,9.2v19.1l9.9-9.9
		C63.9,59.8,92.5,59.8,92.5,59.8z M57.6,60.9V50.7c0-3,2.5-5.5,5.5-5.5h29.3c3,0,5.5,2.5,5.5,5.5s-2.5,5.5-5.5,5.5H62.3L57.6,60.9z"
		/>
	<path class="st0" d="M92.5,72.7H63.1c-5.1,0-9.2,4.1-9.2,9.2s4.1,9.2,9.2,9.2h28.6l9.9,9.9V81.8C101.6,76.8,97.5,72.7,92.5,72.7
		L92.5,72.7z M98,92.1l-4.7-4.7H63.1c-3,0-5.5-2.5-5.5-5.5s2.5-5.5,5.5-5.5h29.3c3,0,5.5,2.5,5.5,5.5V92.1z"/>
</g>
</svg>
