<?xml version="1.0" encoding="utf-8"?>
<!-- Generator: Adobe Illustrator 23.1.1, SVG Export Plug-In . SVG Version: 6.00 Build 0)  -->
<svg version="1.1" id="Laag_1" xmlns="http://www.w3.org/2000/svg" xmlns:xlink="http://www.w3.org/1999/xlink" x="0px" y="0px"
	 viewBox="0 0 150 150" style="enable-background:new 0 0 150 150;" xml:space="preserve">
<style type="text/css">
	.st0{fill:#595656;}
</style>
<g>
	<g>
		<path class="st0" d="M66.6,124.9c0.1-0.9-1.2-6.6-1.2-6.6c-0.5-2.3-2.8-3.8-5.2-3.2l-21,4.8c-2.3,0.5-3.8,2.8-3.2,5.2l1.2,5.4
			c0.5,2.3,2.8,3.8,5.1,3.3l21-4.7C65.3,128.5,66.5,126.8,66.6,124.9z M41.6,129c-1.4-0.2-2.4-1.5-2.2-2.9c0.2-1.4,1.5-2.4,2.9-2.2
			c1.4,0.2,2.4,1.5,2.2,2.9C44.3,128.2,43,129.2,41.6,129z"/>
		<g>
			<path class="st0" d="M59.8,90.4c2.5-4.1,0.8-9.3,0.8-9.3c-1.9-4.8-3.6-7.3-5.3-8.9l0,0l-0.5-0.3c-2.5-1.6-6.7-4.4-10-9.9
				c-3.4-5.8-8.2-10.1-8.2-10.1c-2.4-1.7-5.1-0.6-5.5-0.2c-0.1,0.1-0.4,0.5,0,1.4c0.2,0.3,0.5,1,1.1,2l0.2,0.4
				c9,16.4,11.8,23.5,10.1,26.5l-2.7-1.5c0.6-1.2-0.6-6.2-10.1-23.5l-0.2-0.4c-0.7-1.2-1.1-2.1-1.2-2.3c-1-2.3-0.1-3.8,0.5-4.6
				c0.4-0.5,1.2-1,2.3-1.3c0-4.2,0-13.1,0.2-19.6c0.2-8.1-7.1-5.6-7.1-5.6l0,2.7c-2.9,0-3.7,2-3.7,2c2.2,9.4-5.1,40.9-4.6,43.3
				c0.5,2.4,6.3,9,13.9,19s7.5,20.1,6.2,25.8l24.1-5.6C57.7,97.9,59.8,90.4,59.8,90.4z"/>
			<polygon class="st0" points="51,69.4 51,69.4 51,69.4 			"/>
		</g>
	</g>
	<g>
		<path class="st0" d="M107.6,134.2c2.3,0.6,4.7-0.7,5.3-3l1.4-5.3c0.7-2.3-0.7-4.7-3-5.3l-20.7-5.8c-2.3-0.7-4.7,0.7-5.3,3
			c0,0-1.5,5.2-1.6,6.6c0,1.9,1.2,3.7,3.1,4.2L107.6,134.2z M105.8,127.2c-0.1-1.4,0.9-2.7,2.3-2.8c1.4-0.1,2.7,0.9,2.8,2.3
			c0.1,1.4-0.9,2.7-2.3,2.8C107.2,129.7,105.9,128.6,105.8,127.2z"/>
		<path class="st0" d="M114.9,116.8c-1-5.8-0.6-15.9,7.5-25.5s14.2-15.9,14.8-18.3c0.6-2.4-5.2-34.2-2.5-43.4c0,0-0.7-2.1-3.6-2.2
			l0.2-2.7c0,0-7.2-2.9-7.4,5.2c-0.1,6.5-0.6,15.4-0.8,19.6c1,0.4,1.8,0.9,2.2,1.4c0.6,0.7,1.3,2.3,0.2,4.6
			c-0.1,0.2-0.5,0.9-1.2,1.9L124,58c-10.4,16.9-11.9,21.8-11.3,23l-2.8,1.3c-1.5-3,1.5-9.8,11.4-25.9l0.4-0.6c0.5-0.8,0.9-1.4,1-1.6
			c0.5-1,0.2-1.3,0.1-1.5c-0.3-0.4-3-1.6-5.6,0.1c0,0-4.9,4-8.6,9.6c-3.6,5.4-7.9,7.9-10.5,9.4l-0.5,0.3l0,0
			C95.9,73.6,94,76,92,80.7c0,0-1.9,5.2,0.4,9.4c0,0,1.7,7.6-1.3,19.9L114.9,116.8z"/>
	</g>
</g>
<path class="st0" d="M102.4,59.3v6.2H50.5v-6.2l17.3-11.1v-4.3c-1.1,0-2.1-1.1-3-3.2c-0.9-2.2-1.4-4-1.4-5.4v-8.7
	c0-3.6,1.3-6.6,3.8-9.2c2.5-2.5,5.6-3.8,9.2-3.8c3.6,0,6.6,1.3,9.2,3.8c2.5,2.5,3.8,5.6,3.8,9.2v8.7c0,1.5-0.4,3.3-1.4,5.4
	s-1.9,3.2-3,3.2v4.3L102.4,59.3z"/>
</svg>
