<?xml version="1.0" encoding="utf-8"?>
<!-- Generator: Adobe Illustrator 23.1.1, SVG Export Plug-In . SVG Version: 6.00 Build 0)  -->
<svg version="1.1" id="Laag_1" xmlns="http://www.w3.org/2000/svg" xmlns:xlink="http://www.w3.org/1999/xlink" x="0px" y="0px"
	 viewBox="0 0 150 150" style="enable-background:new 0 0 150 150;" xml:space="preserve">
<style type="text/css">
	.st0{fill:#595656;}
</style>
<path class="st0" d="M28.3,98.3l20.1,20.1l-30,10.1L28.3,98.3z M36.4,91l55.4-55.4L111.1,55l-55.4,55.4L36.4,91z M99.5,27.9l8.5-8.8
	c0.9-0.8,1.9-1.2,3-1.2s2.1,0.4,3,1.2L127.8,33c0.8,0.8,1.2,1.8,1.2,3c0,1.2-0.4,2.2-1.2,2.9l-8.9,8.3L99.5,27.9z"/>
</svg>
