<?xml version="1.0" encoding="utf-8"?>
<!-- Generator: Adobe Illustrator 23.1.1, SVG Export Plug-In . SVG Version: 6.00 Build 0)  -->
<svg version="1.1" id="Laag_1" xmlns="http://www.w3.org/2000/svg" xmlns:xlink="http://www.w3.org/1999/xlink" x="0px" y="0px"
	 viewBox="0 0 150 150" style="enable-background:new 0 0 150 150;" xml:space="preserve">
<style type="text/css">
	.st0{fill:#FFFFFF;}
</style>
<g>
	<g>
		<g>
			<path class="st0" d="M76.34,66.51c0-6.34-3.87-10.13-10.34-10.13c-3.78,0-7.34,2.99-9.04,4.67c-1.71-1.69-5.26-4.67-9.05-4.67
				c-6.47,0-10.34,3.79-10.34,10.13c0,5.19,4.76,9.54,4.93,9.69L56,89.23c0.26,0.26,0.61,0.39,0.95,0.39c0.34,0,0.69-0.13,0.95-0.39
				l13.48-12.98C71.58,76.05,76.34,71.71,76.34,66.51"/>
		</g>
		<path class="st0" d="M126.79,108.19c-0.83-0.44-6.56-1.64-6.56-1.64c-2.34-0.48-4.6,1-5.08,3.34l-4.37,21.06
			c-0.48,2.34,1,4.6,3.34,5.09l5.38,1.17c2.33,0.5,4.61-0.98,5.1-3.31l4.5-21.04C129.52,110.9,128.5,109.05,126.79,108.19z
			 M120.06,132.62c-0.77,1.18-2.38,1.52-3.56,0.75c-1.18-0.77-1.52-2.38-0.75-3.56c0.77-1.18,2.38-1.52,3.56-0.75
			C120.48,129.82,120.83,131.43,120.06,132.62z"/>
		<g>
			<path class="st0" d="M92.54,99.99c-2.67-4-8.14-4.64-8.14-4.64c-5.12-0.3-8.09,0.21-10.3,1.14l0-0.02l-0.49,0.3
				c-2.53,1.61-6.78,4.3-13.2,4.97c-6.71,0.7-12.56,3.2-12.62,3.23c-2.57,1.48-2.7,4.4-2.52,4.87c0.08,0.16,0.27,0.56,1.31,0.59
				c0.35-0.03,1.13-0.06,2.28-0.14l0.41-0.03c18.63-1.36,26.29-0.86,28.28,1.83l-2.46,1.82c-0.79-1.07-5.88-2.04-25.61-0.61
				l-0.41,0.03c-1.38,0.1-2.34,0.16-2.63,0.15c-2.48-0.07-3.54-1.49-3.95-2.33c-0.29-0.6-0.39-1.56-0.26-2.63
				c-3.77-1.76-11.88-5.45-17.72-8.33c-7.3-3.6-8.03,4.13-8.03,4.13l2.5,1.12c-1.21,2.63,0.32,4.2,0.32,4.2
				c9.44,1.88,35.01,21.69,37.4,22.24c2.39,0.55,10.82-1.95,23.05-4.67c12.23-2.72,21.39,1.58,26.06,5.1l4.96-24.28
				C98.52,104.97,92.54,99.99,92.54,99.99z"/>
			<polygon class="st0" points="73.87,94.81 73.87,94.81 73.87,94.81 			"/>
		</g>
	</g>
	<g>
		<path class="st0" d="M133.19,17.14c-0.19-2.38-2.24-4.14-4.62-3.96l-5.49,0.44c-2.38,0.17-4.15,2.22-3.98,4.6l1.55,21.46
			c0.17,2.38,2.22,4.15,4.6,3.98c0,0,5.44-0.34,6.71-0.75c1.81-0.62,3.06-2.32,2.91-4.33L133.19,17.14z M127.3,21.25
			c-1.27,0.61-2.83,0.05-3.43-1.22c-0.61-1.27-0.05-2.83,1.22-3.43c1.27-0.6,2.83-0.05,3.43,1.22
			C129.13,19.09,128.57,20.64,127.3,21.25z"/>
		<path class="st0" d="M114.38,16.23c-5.09,2.87-14.74,5.92-26.51,1.61c-11.77-4.31-19.79-7.91-22.23-7.67
			c-2.44,0.23-30.41,16.48-40.02,17.09c0,0-1.73,1.36-0.88,4.12l-2.63,0.78c0,0-0.3,7.75,7.41,5.15c6.17-2.08,14.71-4.67,18.67-5.91
			c0.01-1.09,0.24-2.02,0.6-2.57c0.51-0.78,1.73-2.04,4.26-1.78c0.2,0.01,1.02,0.18,2.21,0.42l0.74,0.15
			c19.38,4.03,24.55,3.75,25.47,2.79l2.19,2.13c-2.35,2.43-9.75,1.93-28.27-1.93l-0.74-0.15c-0.95-0.2-1.63-0.34-1.88-0.37
			c-1.09-0.13-1.32,0.26-1.42,0.41c-0.23,0.43-0.49,3.34,2,5.25c0.02,0,5.45,3.2,11.95,4.77c6.27,1.52,10.12,4.75,12.42,6.68
			l0.44,0.37l0.01-0.03c2.06,1.22,4.94,2.12,10.06,2.5c0,0,5.5,0.09,8.68-3.52c0,0,6.59-4.15,19.16-5.56L114.38,16.23z"/>
	</g>
</g>
</svg>
